{
  "env": "development",
  "mongodbConfig": {
    "host": "localhost",
    "database": "tic_tac_toe",
    "port": 28800
  },
  "redisConfig": {
    "host": "localhost",
    "port": 28500
  },
  "secretKey": "PSDoRqnd4ySm41aMjWqjvaSOpGhTLZ8n"
}
